<?xml version="1.0" encoding="utf-8"?>
<COLLADA xmlns="http://www.collada.org/2005/11/COLLADASchema" version="1.4.1" xmlns:xsi="http://www.w3.org/2001/XMLSchema-instance">
  <asset>
    <contributor>
      <author>Blender User</author>
      <authoring_tool>Blender 2.93.5 commit date:2021-10-05, commit time:12:04, hash:a791bdabd0b2</authoring_tool>
    </contributor>
    <created>2021-11-09T13:26:33</created>
    <modified>2021-11-09T13:26:33</modified>
    <unit name="meter" meter="1"/>
    <up_axis>Z_UP</up_axis>
  </asset>
  <library_effects>
    <effect id="lambert1-effect">
      <profile_COMMON>
        <technique sid="common">
          <lambert>
            <emission>
              <color sid="emission">0 0 0 1</color>
            </emission>
            <diffuse>
              <color sid="diffuse">0.5 0.5 0.5 1</color>
            </diffuse>
            <reflectivity>
              <float sid="specular">0.5</float>
            </reflectivity>
          </lambert>
        </technique>
      </profile_COMMON>
    </effect>
  </library_effects>
  <library_images/>
  <library_materials>
    <material id="lambert1-material" name="lambert1">
      <instance_effect url="#lambert1-effect"/>
    </material>
  </library_materials>
  <library_geometries>
    <geometry id="auditorium_lowpolyMesh-mesh" name="auditorium_lowpolyMesh">
      <mesh>
        <source id="auditorium_lowpolyMesh-mesh-positions">
          <float_array id="auditorium_lowpolyMesh-mesh-positions-array" count="495">1309.967 -2.44141e-4 -627.0002 1385.148 -2.44141e-4 -627.0002 1309.967 139.9559 -627.0002 1385.148 139.9559 -627.0002 1309.967 139.9559 -507 1385.148 139.9559 -507 1385.148 -2.44141e-4 -507.4345 1309.967 110.956 -507 1385.148 62.16528 -507.0002 1309.967 -2.44141e-4 639 1385.148 -2.44141e-4 639 1309.967 139.9559 639 1385.148 139.9559 639 1309.967 139.9559 518.9998 1385.148 139.9559 518.9998 1385.148 -2.44141e-4 519.0001 1309.967 110.956 518.9998 1385.148 62.16528 518.9999 -617.6425 -3.05176e-4 927 946.0388 -3.05176e-4 927 -617.6425 1170.03 927 946.0388 1170.03 927 1277.409 -3.05176e-4 639 1309.967 -3.05176e-4 639 -617.6425 1001.626 927 946.0388 1001.626 927 946.0389 1001.626 639 1309.967 1001.626 639 -1308.503 1001.626 590.9998 -1308.503 1170.03 590.9998 -1308.503 -3.05176e-4 590.9998 -617.6425 762.0303 927 946.0388 762.0303 927 946.0389 762.0303 639 1309.967 762.0303 639 -1308.503 762.0303 590.9998 -874.3467 762.0303 590.9998 -874.3467 1001.626 590.9998 -874.3467 1170.03 590.9998 -874.3467 1314.03 590.9998 -1308.503 1314.03 590.9998 -1130.166 762.0303 590.9998 -1130.166 -3.05176e-4 590.9998 -1130.166 1314.03 590.9998 -1130.166 1170.03 590.9998 -1130.166 1001.626 590.9998 -617.6425 1170.03 735.0896 -617.6425 762.0303 735.0896 -617.6425 1001.626 735.0896 -875.3078 762.0303 735.2836 -874.3467 1001.626 735.2836 -874.3467 1170.03 735.2836 -875.3078 762.0303 926.9999 -875.3078 -3.05176e-4 926.9999 -1080.616 762.0303 927 -1131.052 762.0303 870.8981 -1080.616 -3.05176e-4 927 -1131.052 -3.05176e-4 870.8981 1277.409 -3.05176e-4 927 1277.409 762.0303 927 527.9122 -3.05176e-4 927 527.9118 762.0303 927 527.9118 1001.626 927 527.9118 1170.03 927 527.9127 762.0303 927 527.9127 1001.626 927 -617.6425 678.3272 927 527.9127 -3.05176e-4 1047 527.9127 762.0303 1047 946.0388 -3.05176e-4 1047 946.0388 762.0303 1047 -617.6425 678.3272 927 -312.2744 -3.05176e-4 927 -312.2744 678.3272 927 -312.2744 762.0303 927 -312.2744 1001.626 927 -312.2744 1170.03 927 -617.6425 -3.05176e-4 1048.076 -312.2744 -3.05176e-4 1048.076 -312.2744 678.3272 1048.076 -617.6425 678.3272 1048.076 -1308.503 -3.05176e-4 -1.26115e-4 941.0232 1278.417 -1.43281e-4 -1308.503 762.0303 -1.26115e-4 -1308.503 1001.626 -1.26115e-4 -1308.503 1170.03 -1.26115e-4 -1308.503 1314.03 -1.26115e-4 -1130.166 1314.03 -1.26115e-4 -874.3467 1314.03 -1.26115e-4 -874.3467 1170.03 -1.26115e-4 -617.6425 1278.417 -1.43281e-4 -312.2744 1278.417 -1.43281e-4 941.0233 1001.626 -1.26115e-4 1309.967 1001.626 -1.26115e-4 1309.967 762.0303 -1.26115e-4 -617.6425 1001.626 -915.65 -312.2744 1001.626 -915.65 -312.2744 1170.03 -915.65 -617.6425 1170.03 -915.65 -617.6425 762.0303 -915.65 -312.2744 762.0303 -915.65 935.8224 762.0303 -627.6499 935.8224 1001.626 -627.6499 933.4551 1001.626 -915.65 933.4551 762.0303 -915.65 1309.967 1001.626 -627.6499 1309.967 762.0303 -627.6499 -874.3467 1001.626 -591.0001 -874.3467 1170.03 -591.0001 -1130.166 1170.03 -591.0001 -1130.166 1001.626 -591.0001 -1130.166 762.0303 -591.0001 -874.3467 762.0303 -591.0001 -617.6425 678.3272 -915.65 -312.2744 678.3272 -915.65 1277.409 -3.05176e-4 -915.65 1277.409 -3.05176e-4 -627.6499 1277.409 762.0303 -915.65 1309.967 -3.05176e-4 -627.6499 -874.3467 1001.626 -710.8106 -875.3078 762.0303 -710.8106 -617.6425 762.0303 -710.6166 -617.6425 1001.626 -710.6166 -617.6425 1170.03 -710.6166 -874.3467 1170.03 -710.8106 -1130.166 1314.03 -591.0001 -874.3467 1314.03 -591.0001 -1308.503 762.0303 -591.0001 -1308.503 -3.05176e-4 -591.0001 -1130.166 -3.05176e-4 -591.0001 -1308.503 1170.03 -591.0001 -1308.503 1314.03 -591.0001 -1308.503 1001.626 -591.0001 -1131.052 -3.05176e-4 -870.8983 -1131.052 762.0303 -870.8983 -875.3078 762.0303 -915.6497 -875.3078 -3.05176e-4 -915.6497 -617.6425 -3.05176e-4 -915.65 -1080.616 762.0303 -915.65 -1080.616 -3.05176e-4 -915.65 933.4551 -3.05176e-4 -915.65 527.9118 762.0303 -915.65 527.9122 -3.05176e-4 -915.65 527.9127 762.0303 -915.65 527.9118 1001.626 -915.65 527.9127 1001.626 -915.65 527.9118 1170.03 -915.65 527.9127 1170.03 -915.65 933.4551 -3.05176e-4 -1043.796 933.4551 762.0303 -1043.796 527.9127 762.0303 -1043.796 527.9127 -3.05176e-4 -1043.796 933.4551 1170.03 -915.65 -617.6425 -3.05176e-4 -1036.726 -312.2744 -3.05176e-4 -1036.726 -312.2744 678.3272 -1036.726 -617.6425 678.3272 -1036.726 -312.2744 -3.05176e-4 -915.65 1277.409 762.0303 -627.6499 1277.409 762.0303 639 1309.967 110.956 -627.6499 1309.967 110.956 -1.26115e-4 1309.967 110.956 639 542.1814 1278.417 -1.43281e-4 -875.3078 -3.05176e-4 926.9999</float_array>
          <technique_common>
            <accessor source="#auditorium_lowpolyMesh-mesh-positions-array" count="165" stride="3">
              <param name="X" type="float"/>
              <param name="Y" type="float"/>
              <param name="Z" type="float"/>
            </accessor>
          </technique_common>
        </source>
        <source id="auditorium_lowpolyMesh-mesh-normals">
          <float_array id="auditorium_lowpolyMesh-mesh-normals-array" count="252">0 0 1 0 1 0 0 -7.84608e-7 -1 1 0 0 1 1.375e-6 0 0.5443857 0.8388351 0 1.33585e-6 -2.35382e-6 1 1 -4.18909e-6 0 0 0 -1 0.9999663 0 -0.00821954 -0.999995 0 0.003164052 -1.44895e-6 0 -1 -7.15179e-7 0 1 -1 0 0 0 0.9930669 -0.1175513 7.52708e-4 -3.01886e-6 -0.9999997 7.98972e-7 0 1 0 1 -1.58861e-7 1.50503e-7 1 0 0.05054146 0 0.998722 1 0 2.11928e-7 1 0 2.11927e-7 1 3.91961e-6 0 -7.24473e-7 0 1 0.9999693 8.89369e-7 -0.007848918 -0.07008713 0.9861361 -0.1504108 -0.999995 0 -0.003164052 -0.9999598 0.004010856 0.008021116 -0.3889756 0.9212481 0 1.45973e-7 1 0 -0.6636999 0 -0.747999 0 0.9893037 0.1458707 -7.15179e-7 0 -1 7.98972e-7 0 -1 -0.07868278 0.989988 -0.1171867 -0.1323829 0 -0.9911987 3.21614e-7 0 -1 7.56034e-4 0 0.9999998 0 0 1 7.55405e-4 0 -0.9999998 0 0 1 0.9999657 -1.85959e-7 -0.008285939 -1 6.40033e-7 0 0 0.9930669 -0.1175514 7.55766e-4 0 0.9999998 0 1 0 0 0.9932339 0.1161315 0 0.9932339 0.1161316 -0.7436619 0 0.6685559 0.999966 -6.47175e-5 -0.008257329 0.5443882 0.8388334 0 -0.999995 0 0.003164052 -1.27324e-6 0 -1 0 0.9928217 -0.1196039 0 0.9930669 -0.1175513 7.56034e-4 0 -0.9999998 0 1 -2.55091e-6 0 1 2.7131e-6 1.50502e-7 1 0 1 0 2.11928e-7 0.9999601 0.007710814 -0.004508733 1 5.93049e-7 0 0 0 -1 -0.3889756 0.9212481 0 -0.999995 0 -0.003164052 0 1 0 -0.08160507 0.9860042 0.1453838 1.45973e-7 1 0 -1 6.83482e-7 4.06902e-6 -0.6636972 0 -0.7480014 -0.9999698 0.004011213 -0.00666064 -0.0727899 0.9905992 0.1158233 1.59794e-6 0 -1 0 1 -1.87189e-7 0 0.9885671 -0.1507821 7.52708e-4 -3.01886e-6 0.9999997 7.55767e-4 0 -0.9999998 -1 0 -3.81035e-6 0 0.9930669 -0.1175512 7.55767e-4 0 0.9999998 0 0.9932339 0.1161315 0 0.9932339 0.1161317 0.9999663 0 -0.00821954 2.51914e-6 0 -1</float_array>
          <technique_common>
            <accessor source="#auditorium_lowpolyMesh-mesh-normals-array" count="84" stride="3">
              <param name="X" type="float"/>
              <param name="Y" type="float"/>
              <param name="Z" type="float"/>
            </accessor>
          </technique_common>
        </source>
        <source id="auditorium_lowpolyMesh-mesh-map-0">
          <float_array id="auditorium_lowpolyMesh-mesh-map-0-array" count="1644">0.4058086 0.5272442 0.3902475 0.502167 0.3901719 0.5272114 0.5407904 0.9190944 0.5354785 0.9275415 0.53639 0.9204365 0.5397323 0.9166544 0.53639 0.9204365 0.5317332 0.9170624 0.5325447 0.8127184 0.5371374 0.8007866 0.5379637 0.8090227 0.5354785 0.9275415 0.5317332 0.9170624 0.53639 0.9204365 0.5317332 0.9170624 0.5416687 0.8134854 0.5397323 0.9166544 0.5379637 0.8090227 0.5416687 0.8134854 0.5325447 0.8127184 0.5325447 0.8127184 0.5253162 0.8025752 0.5371374 0.8007866 0.5371374 0.8007866 0.5429748 0.8107185 0.5379637 0.8090227 0.5317332 0.9170624 0.5253162 0.9257394 0.5265625 0.9166861 0.3949306 0.5005712 0.4104917 0.5256484 0.394855 0.5256155 0.4948877 0.8661094 0.5765807 0.8318983 0.5765797 0.8661124 0.7418591 0.6153097 0.5674766 0.5029036 0.5670658 0.6299216 0.4163791 0.6210689 0.4162701 0.6541449 0.4220948 0.6210799 0.0798214 0.5673188 0.02589905 0.5943484 0.07982188 0.5938517 0.8877491 0.6140354 0.835495 0.5322757 0.835495 0.6140354 0.8121878 0.61312 0.8657339 0.6282104 0.8121428 0.6280983 0.2066384 0.5624265 0.08115607 0.592099 0.08115607 0.5624265 0.8593286 0.503515 0.8057374 0.5034027 0.8053718 0.6154426 0.02107208 0.6941776 0.1626523 0.8622424 0.02107208 0.8622424 0.72615 0.360941 0.691936 0.552616 0.726148 0.552618 0.8120137 0.6709724 0.7486299 0.627965 0.8121428 0.6280983 0.864204 0.6714935 0.9175404 0.6287307 0.9174112 0.6716048 0.9135789 0.5032026 0.9502599 0.6302983 0.9506707 0.5032803 0.02107208 0.9522262 0.1626516 0.9839857 0.02128547 0.9839857 0.7733225 0.660615 0.7485271 0.6824762 0.7733736 0.6824182 0.9131681 0.6302208 0.9501308 0.6731725 0.9502599 0.6302983 0.5194288 0.9478794 0.4829924 0.8628286 0.5570608 0.8628107 0.9129483 0.7032299 0.8596634 0.7288864 0.9128707 0.728998 0.8646472 0.6713424 0.8113843 0.6283566 0.8649761 0.6284686 0.9546323 0.6288084 0.9179511 0.5017126 0.9550428 0.5017903 0.7418141 0.6302878 0.8051975 0.6732951 0.8053267 0.6304208 0.8593286 0.503515 0.9016194 0.6306226 0.9020304 0.5036045 0.4115905 0.502577 0.4801006 0.6297395 0.4805114 0.5027214 0.05679696 0.861173 0.02728199 0.910529 0.07637697 0.910701 0.09601497 0.861173 0.07637697 0.910701 0.05679696 0.861173 0.3623645 0.4733791 0.3349968 0.5579868 0.3618149 0.5580297 0.07637697 0.910701 0.09601497 0.861173 0.05679696 0.861173 0.4870281 0.9291771 0.5273831 0.801321 0.4870271 0.801321 0.421566 0.6206633 0.4814249 0.6538541 0.4157413 0.6537283 0.882301 0.223447 0.882302 0.008117973 0.882302 0.223447 0.882302 0.223447 0.882302 0.29115 0.882301 0.29115 0.882301 0.29115 0.882301 0.223447 0.882302 0.223447 0.882301 0.338736 0.882301 0.29115 0.882302 0.29115 0.741685 0.673162 0.5670658 0.6299216 0.5669367 0.6727958 0.0798214 0.5673188 0.02589905 0.5943484 0.02738785 0.5698016 0.07982188 0.5938517 0.02407062 0.6307587 0.02589905 0.5943484 0.5265625 0.9166861 0.5325447 0.8127184 0.5317332 0.9170624 0.7415943 0.703297 0.5669367 0.6727958 0.5668459 0.7029309 0.741685 0.673162 0.8051069 0.70343 0.8051975 0.6732951 0.01647371 0.5655323 0.07810312 0.4768994 0.01647371 0.4768994 0.48016 0.6542672 0.4220948 0.6210799 0.4162701 0.6541449 0.7418141 0.6302878 0.7418591 0.6153097 0.5670658 0.6299216 0.5747663 0.5004194 0.4900079 0.6272608 0.4904186 0.5002427 0.08115607 0.4799513 0.2066384 0.5624265 0.2066384 0.4799513 0.858918 0.6305332 0.8053718 0.6154426 0.8053267 0.6304208 0.08115607 0.592099 0.2066384 0.5624265 0.08115607 0.5624265 0.8640355 0.7273966 0.9173203 0.7017399 0.917243 0.727508 0.07982188 0.5938517 0.2075586 0.5952551 0.2075591 0.6448017 0.9129483 0.7032299 0.9499627 0.7290757 0.9500404 0.7033074 0.4415394 0.9174808 0.4590817 0.8613293 0.4590817 0.9270298 0.8354789 0.5322762 0.8877337 0.6140359 0.8354789 0.6140359 0.9545033 0.6716825 0.9175404 0.6287307 0.9546323 0.6288084 0.8618496 0.7281413 0.8596634 0.7288864 0.859741 0.7031183 0.859741 0.7031183 0.8619272 0.7023733 0.8618496 0.7281413 0.8641131 0.7016285 0.9174112 0.6716048 0.9173203 0.7017399 0.01647418 0.4768989 0.07810312 0.5655323 0.01647317 0.5655323 0.9501308 0.6731725 0.9129483 0.7032299 0.9500404 0.7033074 0.7948145 0.6602568 0.7773244 0.6806855 0.7948145 0.6806852 0.4590817 0.7732538 0.4874358 0.7732538 0.4590817 0.7973381 0.5737526 0.6704732 0.7486299 0.627965 0.7485008 0.6708393 0.4415394 0.797321 0.4590817 0.7973381 0.4415394 0.8051779 0.6207529 0.8632736 0.592598 0.810488 0.6209906 0.8106161 0.7992066 0.6295199 0.7805145 0.6605401 0.7805364 0.6295199 0.8119229 0.7011074 0.7485008 0.6708393 0.8120137 0.6709724 0.7418591 0.6153097 0.8053267 0.6304208 0.8053718 0.6154426 0.4798808 0.7027487 0.5669364 0.6727958 0.4799716 0.6726137 0.4158504 0.6206524 0.421566 0.6206633 0.4157413 0.6537283 0.1626523 0.9150851 0.02107274 0.8622416 0.02107208 0.9150845 0.4415394 0.8051779 0.4590817 0.8613293 0.4415394 0.8613293 0.573662 0.7006082 0.7485008 0.6708393 0.7484102 0.7009744 0.5670655 0.9031316 0.4796568 0.9031007 0.4801006 0.9029496 0.4216453 0.8621264 0.4426254 0.8070634 0.4216411 0.8071547 0.7805406 0.682343 0.7992066 0.6605398 0.799207 0.682343 0.4216407 0.8071547 0.3915438 0.8621277 0.3915391 0.8070657 0.7486751 0.6129869 0.5742925 0.5005809 0.7490409 0.5009469 0.8230389 0.6256083 0.8433551 0.4996293 0.8434035 0.6256005 0.9187598 0.6283783 0.9088463 0.5012819 0.9191706 0.5013601 0.7948141 0.6311921 0.7773003 0.6602568 0.7948145 0.6602568 0.1626523 0.8622424 0.02107399 0.6941769 0.02107274 0.8622416 0.7733225 0.660615 0.748404 0.6296532 0.7484763 0.660673 0.8126357 0.6129673 0.7494886 0.5007944 0.8130015 0.5009275 0.4590817 0.7973381 0.4874358 0.8613293 0.4590817 0.8613293 0.9543349 0.7275856 0.9173203 0.7017399 0.9544125 0.7018176 0.8125536 0.50108 0.8661445 0.5011923 0.8121878 0.61312 0.9084354 0.6282999 0.8661445 0.5011923 0.9088463 0.5012819 0.1626516 0.9839857 0.02107208 0.9522256 0.02128481 0.983985 0.02728199 0.91053 0.05679696 0.861173 0.07637697 0.910701 0.7382917 0.6922577 0.7040796 0.5005807 0.7382926 0.5005817 0.4590817 0.9270298 0.4874358 0.8613293 0.4874358 0.949404 0.5699587 0.6922577 0.6041727 0.5005807 0.5699607 0.5005807 0.3355463 0.4733366 0.3618149 0.5580297 0.3349968 0.5579868 0.590375 0.9187266 0.6184429 0.9451196 0.5900633 0.9447801 0.882322 0.223446 0.882322 0.223446 0.882322 0.008117973 0.882322 0.223446 0.882322 0.29115 0.882322 0.223446 0.882322 0.223446 0.882322 0.29115 0.882322 0.29115 0.882322 0.29115 0.882322 0.338736 0.882322 0.29115 0.882322 0.29115 0.882322 0.338736 0.882322 0.338736 0.5738816 0.627599 0.4894049 0.6702964 0.4895339 0.6274222 0.4179958 0.6272724 0.4899446 0.5004041 0.4895339 0.6274222 0.7508865 0.68081 0.7741178 0.6603259 0.7741664 0.6807547 0.8592981 0.6731652 0.8060367 0.630179 0.8059074 0.6730532 0.5670326 0.5030549 0.4796568 0.6298907 0.5666217 0.630073 0.2066384 0.4799513 0.08115607 0.5624265 0.08115607 0.4799513 0.8111644 0.7013658 0.8646472 0.6713424 0.8645565 0.7014775 0.7507688 0.6313169 0.7741178 0.6603259 0.7508379 0.6603816 0.7486299 0.627965 0.5738818 0.627599 0.7486751 0.6129869 0.3915438 0.8621277 0.4216411 0.8071547 0.3915395 0.8070657 0.02107208 0.9150851 0.1626523 0.9522262 0.02107208 0.9522262 0.9130391 0.6730949 0.859741 0.7031183 0.9129483 0.7032299 0.05679696 0.861173 0.09601497 0.811272 0.09601497 0.861173 0.09601497 0.811272 0.05679696 0.861173 0.09601497 0.861173 0.4799716 0.6726137 0.5670655 0.6299216 0.4801006 0.6297395 0.07982188 0.5938517 0.2075591 0.6448017 0.2075586 0.5952551 0.442625 0.8070637 0.4216453 0.8621264 0.4216407 0.8071547 0.8435627 0.6255119 0.8229885 0.4995486 0.8230373 0.6255198 0.5699597 0.5005807 0.6041727 0.6922567 0.5699597 0.6922577 0.489314 0.7004315 0.5737526 0.6704732 0.5736617 0.7006082 0.9173203 0.7017399 0.9545033 0.6716825 0.9544125 0.7018176 0.8619272 0.7023733 0.8641131 0.7016285 0.8618496 0.7281413 0.8618496 0.7281413 0.8641131 0.7016285 0.8640355 0.7273966 0.5909985 0.9472264 0.5570608 0.8628107 0.5916342 0.8628024 0.8592981 0.6731652 0.8058168 0.7031881 0.8592073 0.7033002 0.6187546 0.9190661 0.5900629 0.9447801 0.5903746 0.9187266 0.02107208 0.8622424 0.1626523 0.9150851 0.02107208 0.9150851 0.9131681 0.6302208 0.8598319 0.6729833 0.9130391 0.6730949 0.4590817 0.949404 0.4590817 0.9270298 0.4874358 0.949404 0.1626523 0.9522262 0.02107208 0.9150845 0.02107208 0.9522256 0.4415394 0.9270463 0.4415394 0.9174808 0.4590817 0.9270298 0.5603914 0.8802768 0.4786975 0.8460658 0.4786995 0.8802787 0.5923604 0.8631455 0.6205153 0.9159311 0.5921227 0.915803 0.8121878 0.61312 0.7486299 0.627965 0.7486751 0.6129869 0.4224415 0.52309 0.4166752 0.5383965 0.4220948 0.6210799 0.5558031 0.7773549 0.4829924 0.8628286 0.4829717 0.7773725 0.5920483 0.7773461 0.5570608 0.8628107 0.5558031 0.7773549 0.9125545 0.5322762 0.8877337 0.6140359 0.8877337 0.5322762 0.07982188 0.5938517 0.02407062 0.6307587 0.2075591 0.6448017 0.741777 0.5034223 0.8049239 0.6155954 0.8052897 0.5035554 0.4161465 0.5379799 0.4161971 0.5226625 0.4219127 0.5226734 0.4058086 0.5272442 0.4058842 0.5021998 0.3902475 0.502167 0.5407904 0.9190944 0.5405673 0.9276738 0.5354785 0.9275415 0.5397323 0.9166544 0.5407904 0.9190944 0.53639 0.9204365 0.5354785 0.9275415 0.5253162 0.9257394 0.5317332 0.9170624 0.5317332 0.9170624 0.5325447 0.8127184 0.5416687 0.8134854 0.5379637 0.8090227 0.5429748 0.8107185 0.5416687 0.8134854 0.5325447 0.8127184 0.5265495 0.8130416 0.5253162 0.8025752 0.5371374 0.8007866 0.5430144 0.8008101 0.5429748 0.8107185 0.3949306 0.5005712 0.410567 0.5006039 0.4104917 0.5256484 0.4948877 0.8661094 0.4948887 0.8318974 0.5765807 0.8318983 0.7418591 0.6153097 0.7422247 0.5032697 0.5674766 0.5029036 0.0798214 0.5673188 0.02738785 0.5698016 0.02589905 0.5943484 0.8877491 0.6140354 0.8877491 0.5322757 0.835495 0.5322757 0.8121878 0.61312 0.8661445 0.5011923 0.8657339 0.6282104 0.2066384 0.5624265 0.2066384 0.592099 0.08115607 0.592099 0.02107208 0.6941776 0.1626529 0.6941776 0.1626523 0.8622424 0.72615 0.360941 0.691937 0.36094 0.691936 0.552616 0.8120137 0.6709724 0.7485008 0.6708393 0.7486299 0.627965 0.864204 0.6714935 0.8643332 0.6286193 0.9175404 0.6287307 0.9135789 0.5032026 0.9131681 0.6302208 0.9502599 0.6302983 0.02107208 0.9522262 0.1626523 0.9522262 0.1626516 0.9839857 0.7733225 0.660615 0.7484763 0.660673 0.7485271 0.6824762 0.9131681 0.6302208 0.9130391 0.6730949 0.9501308 0.6731725 0.5570608 0.8628107 0.5558443 0.9472349 0.5194288 0.9478794 0.5194288 0.9478794 0.4830127 0.9472525 0.4829924 0.8628286 0.9129483 0.7032299 0.859741 0.7031183 0.8596634 0.7288864 0.8646472 0.6713424 0.8112551 0.6712308 0.8113843 0.6283566 0.9546323 0.6288084 0.9175404 0.6287307 0.9179511 0.5017126 0.7418141 0.6302878 0.741685 0.673162 0.8051975 0.6732951 0.8593286 0.503515 0.858918 0.6305332 0.9016194 0.6306226 0.4115905 0.502577 0.4111797 0.6295951 0.4801006 0.6297395 0.05679696 0.861173 0.02728199 0.860986 0.02728199 0.910529 0.09601497 0.861173 0.09601497 0.887381 0.07637697 0.910701 0.3623645 0.4733791 0.3355463 0.4733366 0.3349968 0.5579868 0.07637697 0.910701 0.09601497 0.887381 0.09601497 0.861173 0.4870281 0.9291771 0.5272101 0.928901 0.5273831 0.801321 0.421566 0.6206633 0.481534 0.6207782 0.4814249 0.6538541 0.741685 0.673162 0.7418141 0.6302878 0.5670658 0.6299216 0.0798214 0.5673188 0.07982188 0.5938517 0.02589905 0.5943484 0.07982188 0.5938517 0.2075591 0.6448017 0.02407062 0.6307587 0.5265625 0.9166861 0.5265495 0.8130416 0.5325447 0.8127184 0.7415943 0.703297 0.741685 0.673162 0.5669367 0.6727958 0.741685 0.673162 0.7415943 0.703297 0.8051069 0.70343 0.01647371 0.5655323 0.07810312 0.5655323 0.07810312 0.4768994 0.48016 0.6542672 0.480269 0.6211913 0.4220948 0.6210799 0.5747663 0.5004194 0.5743555 0.6274375 0.4900079 0.6272608 0.08115607 0.4799513 0.08115607 0.5624265 0.2066384 0.5624265 0.858918 0.6305332 0.8593286 0.503515 0.8053718 0.6154426 0.08115607 0.592099 0.2066384 0.592099 0.2066384 0.5624265 0.8640355 0.7273966 0.8641131 0.7016285 0.9173203 0.7017399 0.9129483 0.7032299 0.9128707 0.728998 0.9499627 0.7290757 0.4415394 0.9174808 0.4415394 0.8613293 0.4590817 0.8613293 0.8354789 0.5322762 0.8877337 0.5322762 0.8877337 0.6140359 0.9545033 0.6716825 0.9174112 0.6716048 0.9175404 0.6287307 0.8641131 0.7016285 0.864204 0.6714935 0.9174112 0.6716048 0.01647418 0.4768989 0.07810312 0.4768994 0.07810312 0.5655323 0.9501308 0.6731725 0.9130391 0.6730949 0.9129483 0.7032299 0.7948145 0.6602568 0.7773003 0.6602568 0.7773244 0.6806855 0.5737526 0.6704732 0.5738818 0.627599 0.7486299 0.627965 0.6207529 0.8632736 0.5923604 0.8631455 0.592598 0.810488 0.7992066 0.6295199 0.7992066 0.6605398 0.7805145 0.6605401 0.8119229 0.7011074 0.7484102 0.7009744 0.7485008 0.6708393 0.7418591 0.6153097 0.7418141 0.6302878 0.8053267 0.6304208 0.4798808 0.7027487 0.5668459 0.7029309 0.5669364 0.6727958 0.1626523 0.9150851 0.1626523 0.8622424 0.02107274 0.8622416 0.4415394 0.8051779 0.4590817 0.7973381 0.4590817 0.8613293 0.573662 0.7006082 0.5737526 0.6704732 0.7485008 0.6708393 0.5670655 0.9031316 0.5666217 0.903283 0.4796568 0.9031007 0.4216453 0.8621264 0.4426296 0.8621254 0.4426254 0.8070634 0.7805406 0.682343 0.7805145 0.6605401 0.7992066 0.6605398 0.4216407 0.8071547 0.4216453 0.8621264 0.3915438 0.8621277 0.7486751 0.6129869 0.5738818 0.627599 0.5742925 0.5005809 0.8230389 0.6256083 0.8229905 0.4996371 0.8433551 0.4996293 0.9187598 0.6283783 0.9084354 0.6282999 0.9088463 0.5012819 0.7948141 0.6311921 0.7773212 0.6311925 0.7773003 0.6602568 0.1626523 0.8622424 0.1626529 0.6941776 0.02107399 0.6941769 0.7733225 0.660615 0.7732502 0.6295953 0.748404 0.6296532 0.8126357 0.6129673 0.749123 0.6128342 0.7494886 0.5007944 0.4590817 0.7973381 0.4874358 0.7732538 0.4874358 0.8613293 0.9543349 0.7275856 0.917243 0.727508 0.9173203 0.7017399 0.9084354 0.6282999 0.8657339 0.6282104 0.8661445 0.5011923 0.1626516 0.9839857 0.1626523 0.9522262 0.02107208 0.9522256 0.02728199 0.91053 0.02728199 0.860987 0.05679696 0.861173 0.7382917 0.6922577 0.7040787 0.6922577 0.7040796 0.5005807 0.4590817 0.9270298 0.4590817 0.8613293 0.4874358 0.8613293 0.5699587 0.6922577 0.6041717 0.6922587 0.6041727 0.5005807 0.3355463 0.4733366 0.3623645 0.4733791 0.3618149 0.5580297 0.590375 0.9187266 0.6187546 0.9190661 0.6184429 0.9451196 0.5738816 0.627599 0.5737526 0.6704732 0.4894049 0.6702964 0.4179958 0.6272724 0.4184064 0.5002543 0.4899446 0.5004041 0.7508865 0.68081 0.7508379 0.6603816 0.7741178 0.6603259 0.8592981 0.6731652 0.8596273 0.6302914 0.8060367 0.630179 0.5670326 0.5030549 0.4800675 0.5028727 0.4796568 0.6298907 0.2066384 0.4799513 0.2066384 0.5624265 0.08115607 0.5624265 0.8111644 0.7013658 0.8112551 0.6712308 0.8646472 0.6713424 0.7507688 0.6313169 0.7740486 0.6312616 0.7741178 0.6603259 0.3915438 0.8621277 0.4216453 0.8621264 0.4216411 0.8071547 0.02107208 0.9150851 0.1626523 0.9150851 0.1626523 0.9522262 0.9130391 0.6730949 0.8598319 0.6729833 0.859741 0.7031183 0.05679696 0.861173 0.05675697 0.811272 0.09601497 0.811272 0.09601497 0.811272 0.05675697 0.811272 0.05679696 0.861173 0.4799716 0.6726137 0.5669364 0.6727958 0.5670655 0.6299216 0.442625 0.8070637 0.4426296 0.8621254 0.4216453 0.8621264 0.8435627 0.6255119 0.8435138 0.4995408 0.8229885 0.4995486 0.5699597 0.5005807 0.6041727 0.5005807 0.6041727 0.6922567 0.489314 0.7004315 0.4894049 0.6702964 0.5737526 0.6704732 0.9173203 0.7017399 0.9174112 0.6716048 0.9545033 0.6716825 0.5909985 0.9472264 0.5558443 0.9472349 0.5570608 0.8628107 0.8592981 0.6731652 0.8059074 0.6730532 0.8058168 0.7031881 0.6187546 0.9190661 0.6184429 0.9451196 0.5900629 0.9447801 0.02107208 0.8622424 0.1626523 0.8622424 0.1626523 0.9150851 0.9131681 0.6302208 0.8599609 0.6301092 0.8598319 0.6729833 0.1626523 0.9522262 0.1626523 0.9150851 0.02107208 0.9150845 0.5603914 0.8802768 0.5603905 0.8460637 0.4786975 0.8460658 0.5923604 0.8631455 0.6207529 0.8632736 0.6205153 0.9159311 0.8121878 0.61312 0.8121428 0.6280983 0.7486299 0.627965 0.4167259 0.523079 0.4166752 0.5383965 0.4224415 0.52309 0.4166752 0.5383965 0.4163791 0.6210689 0.4220948 0.6210799 0.5558031 0.7773549 0.5570608 0.8628107 0.4829924 0.8628286 0.5920483 0.7773461 0.5916342 0.8628024 0.5570608 0.8628107 0.9125545 0.5322762 0.9125545 0.6140359 0.8877337 0.6140359 0.07982188 0.5938517 0.02589905 0.5943484 0.02407062 0.6307587 0.741777 0.5034223 0.7414115 0.6154623 0.8049239 0.6155954 0.4219127 0.5226734 0.421566 0.6206633 0.4161465 0.5379799 0.421566 0.6206633 0.4158504 0.6206524 0.4161465 0.5379799</float_array>
          <technique_common>
            <accessor source="#auditorium_lowpolyMesh-mesh-map-0-array" count="822" stride="2">
              <param name="S" type="float"/>
              <param name="T" type="float"/>
            </accessor>
          </technique_common>
        </source>
        <vertices id="auditorium_lowpolyMesh-mesh-vertices">
          <input semantic="POSITION" source="#auditorium_lowpolyMesh-mesh-positions"/>
        </vertices>
        <lines count="1">
          <input semantic="VERTEX" source="#auditorium_lowpolyMesh-mesh-vertices" offset="0"/>
          <p>66 164</p>
        </lines>
        <triangles material="lambert1-material" count="274">
          <input semantic="VERTEX" source="#auditorium_lowpolyMesh-mesh-vertices" offset="0"/>
          <input semantic="NORMAL" source="#auditorium_lowpolyMesh-mesh-normals" offset="1"/>
          <input semantic="TEXCOORD" source="#auditorium_lowpolyMesh-mesh-map-0" offset="2" set="0"/>
          <p>11 0 0 10 0 1 12 0 2 13 1 3 12 1 4 14 1 5 16 2 6 14 2 7 17 2 8 8 3 9 3 3 10 5 3 11 12 4 12 17 4 13 14 4 14 17 5 15 7 5 16 16 5 17 5 6 18 7 6 19 8 6 20 8 3 21 1 3 22 3 3 23 3 1 24 4 1 25 5 1 26 17 7 27 10 7 28 15 7 29 1 8 30 2 8 31 3 8 32 71 1 33 79 1 34 73 1 35 73 0 36 60 0 37 61 0 38 34 0 39 27 0 40 159 0 41 101 9 42 103 9 43 102 9 44 134 10 45 129 10 46 111 10 47 113 11 48 135 11 49 99 11 50 94 3 51 27 3 52 34 3 53 53 12 54 18 12 55 71 12 56 128 13 57 83 13 58 127 13 59 157 3 60 155 3 61 114 3 62 95 8 63 100 8 64 99 8 65 107 8 66 111 8 67 110 8 68 42 0 69 35 0 70 30 0 71 130 13 72 86 13 73 131 13 74 48 13 75 20 13 76 46 13 77 41 0 78 28 0 79 35 0 80 146 14 81 91 14 82 163 14 83 44 0 84 39 0 85 43 0 86 119 15 87 121 15 88 120 15 89 127 8 90 129 8 91 128 8 92 74 0 93 24 0 94 31 0 95 53 16 96 54 16 97 56 16 98 58 0 99 32 0 100 19 0 101 49 17 102 41 17 103 55 17 104 135 1 105 134 1 106 120 1 107 140 3 108 149 3 109 104 3 110 55 1 111 52 1 112 49 1 113 104 18 114 150 18 115 143 18 116 158 8 117 102 8 118 105 8 119 61 0 120 60 0 121 64 0 122 64 0 123 65 0 124 62 0 125 62 19 126 61 19 127 64 19 128 63 0 129 62 0 130 65 0 131 75 0 132 61 0 133 62 0 134 33 20 135 25 20 136 32 20 137 26 21 138 21 21 139 25 21 140 15 22 141 8 22 142 17 22 143 76 0 144 62 0 145 63 0 146 75 0 147 20 0 148 24 0 149 117 3 150 116 3 151 115 3 152 26 0 153 159 0 154 27 0 155 74 0 156 73 0 157 61 0 158 151 8 159 149 8 160 148 8 161 160 3 162 94 3 163 161 3 164 52 23 165 71 23 166 31 23 167 105 3 168 94 3 169 106 3 170 126 8 171 109 8 172 125 8 173 26 24 174 92 24 175 82 24 176 44 0 177 40 0 178 29 0 179 108 25 180 90 25 181 123 25 182 42 26 183 55 26 184 41 26 185 132 8 186 111 8 187 127 8 188 88 3 189 39 3 190 38 3 191 38 3 192 89 3 193 88 3 194 108 8 195 110 8 196 109 8 197 58 3 198 159 3 199 59 3 200 28 0 201 44 0 202 29 0 203 37 13 204 51 13 205 38 13 206 20 1 207 76 1 208 46 1 209 144 8 210 100 8 211 96 8 212 51 1 213 46 1 214 38 1 215 93 1 216 26 1 217 27 1 218 112 27 219 119 27 220 120 27 221 98 8 222 96 8 223 95 8 224 73 0 225 31 0 226 71 0 227 21 0 228 65 0 229 25 0 230 106 8 231 158 8 232 105 8 233 84 13 234 35 13 235 28 13 236 38 28 237 90 28 238 89 28 239 146 8 240 96 8 241 97 8 242 64 29 243 70 29 244 32 29 245 87 1 246 40 1 247 43 1 248 124 13 249 107 13 250 108 13 251 125 1 252 88 1 253 126 1 254 114 8 255 142 8 256 157 8 257 64 13 258 67 13 259 68 13 260 134 30 261 139 30 262 133 30 263 36 13 264 50 13 265 37 13 266 83 13 267 30 13 268 35 13 269 48 13 270 31 13 271 24 13 272 156 8 273 154 8 274 153 8 275 46 31 276 91 31 277 90 31 278 131 8 279 109 8 280 130 8 281 137 32 282 136 32 283 113 32 284 138 33 285 136 33 286 139 33 287 86 13 288 29 13 289 40 13 290 111 1 291 120 1 292 134 1 293 73 3 294 78 3 295 72 3 296 123 34 297 91 34 298 97 34 299 113 13 300 153 13 301 137 13 302 69 3 303 32 3 304 70 3 305 101 1 306 117 1 307 104 1 308 141 8 309 143 8 310 142 8 311 141 35 312 144 35 313 143 35 314 143 8 315 144 8 316 145 8 317 144 8 318 146 8 319 145 8 320 145 8 321 146 8 322 147 8 323 143 36 324 103 36 325 104 36 326 117 8 327 140 8 328 104 8 329 98 13 330 122 13 331 123 13 332 50 37 333 47 37 334 48 37 335 67 38 336 70 38 337 68 38 338 161 3 339 34 3 340 162 3 341 123 39 342 119 39 343 124 39 344 99 13 345 122 13 346 95 13 347 100 8 348 141 8 349 114 8 350 88 1 351 43 1 352 39 1 353 132 13 354 85 13 355 130 13 356 45 0 357 38 0 358 44 0 359 120 1 360 99 1 361 135 1 362 31 1 363 49 1 364 52 1 365 25 40 366 64 40 367 32 40 368 102 41 369 82 41 370 92 41 371 131 1 372 87 1 373 125 1 374 150 42 375 142 42 376 143 42 377 18 13 378 80 13 379 71 13 380 152 8 381 145 8 382 147 8 383 109 8 384 132 8 385 130 8 386 89 3 387 108 3 388 88 3 389 88 3 390 108 3 391 126 3 392 152 43 393 163 43 394 82 43 395 50 44 396 46 44 397 51 44 398 59 45 399 33 45 400 32 45 401 127 13 402 84 13 403 132 13 404 41 0 405 37 0 406 45 0 407 98 1 408 123 1 409 97 1 410 85 13 411 28 13 412 29 13 413 124 1 414 108 1 415 123 1 416 114 1 417 156 1 418 113 1 419 92 1 420 105 1 421 102 1 422 113 8 423 100 8 424 114 8 425 22 0 426 162 0 427 159 0 428 63 46 429 91 46 430 76 46 431 21 47 432 163 47 433 63 47 434 56 48 435 55 48 436 57 48 437 102 49 438 152 49 439 82 49 440 78 0 441 80 0 442 77 0 443 160 8 444 118 8 445 116 8 446 11 0 447 9 0 448 10 0 449 13 1 450 11 1 451 12 1 452 16 8 453 13 8 454 14 8 455 12 3 456 10 3 457 17 3 458 17 50 459 8 50 460 7 50 461 5 0 462 4 0 463 7 0 464 8 3 465 6 3 466 1 3 467 3 1 468 2 1 469 4 1 470 1 8 471 0 8 472 2 8 473 71 1 474 80 1 475 79 1 476 73 0 477 72 0 478 60 0 479 101 9 480 104 9 481 103 9 482 134 51 483 133 51 484 129 51 485 113 52 486 136 52 487 135 52 488 94 3 489 93 3 490 27 3 491 128 13 492 81 13 493 83 13 494 157 3 495 154 3 496 155 3 497 95 8 498 96 8 499 100 8 500 107 8 501 112 8 502 111 8 503 42 0 504 41 0 505 35 0 506 130 13 507 85 13 508 86 13 509 48 13 510 24 13 511 20 13 512 41 0 513 45 0 514 28 0 515 163 53 516 147 53 517 146 53 518 146 54 519 97 54 520 91 54 521 44 0 522 38 0 523 39 0 524 119 55 525 122 55 526 121 55 527 127 8 528 111 8 529 129 8 530 74 0 531 75 0 532 24 0 533 53 0 534 52 0 535 54 0 536 58 0 537 59 0 538 32 0 539 49 1 540 36 1 541 41 1 542 135 56 543 138 56 544 134 56 545 140 3 546 148 3 547 149 3 548 55 57 549 54 57 550 52 57 551 104 58 552 149 58 553 150 58 554 158 8 555 101 8 556 102 8 557 75 0 558 74 0 559 61 0 560 33 59 561 26 59 562 25 59 563 26 60 564 82 60 565 21 60 566 15 61 567 6 61 568 8 61 569 76 0 570 75 0 571 62 0 572 75 0 573 76 0 574 20 0 575 117 3 576 158 3 577 116 3 578 26 0 579 33 0 580 159 0 581 151 62 582 150 62 583 149 62 584 160 3 585 106 3 586 94 3 587 52 0 588 53 0 589 71 0 590 105 3 591 93 3 592 94 3 593 126 8 594 108 8 595 109 8 596 44 0 597 43 0 598 40 0 599 108 63 600 89 63 601 90 63 602 42 64 603 57 64 604 55 64 605 132 8 606 110 8 607 111 8 608 108 8 609 107 8 610 110 8 611 58 3 612 22 3 613 159 3 614 28 0 615 45 0 616 44 0 617 37 13 618 50 13 619 51 13 620 144 8 621 141 8 622 100 8 623 93 65 624 92 65 625 26 65 626 112 13 627 107 13 628 119 13 629 98 8 630 97 8 631 96 8 632 73 0 633 74 0 634 31 0 635 21 0 636 63 0 637 65 0 638 84 13 639 83 13 640 35 13 641 38 66 642 46 66 643 90 66 644 146 8 645 144 8 646 96 8 647 64 67 648 68 67 649 70 67 650 87 1 651 86 1 652 40 1 653 124 13 654 119 13 655 107 13 656 125 1 657 87 1 658 88 1 659 114 8 660 141 8 661 142 8 662 64 68 663 60 68 664 67 68 665 134 69 666 138 69 667 139 69 668 36 70 669 49 70 670 50 70 671 83 13 672 81 13 673 30 13 674 48 13 675 47 13 676 31 13 677 156 8 678 155 8 679 154 8 680 46 71 681 76 71 682 91 71 683 131 8 684 125 8 685 109 8 686 138 72 687 135 72 688 136 72 689 86 13 690 85 13 691 29 13 692 111 73 693 112 73 694 120 73 695 73 3 696 79 3 697 78 3 698 123 74 699 90 74 700 91 74 701 113 13 702 156 13 703 153 13 704 69 3 705 19 3 706 32 3 707 101 1 708 158 1 709 117 1 710 143 8 711 145 8 712 103 8 713 117 8 714 115 8 715 140 8 716 98 13 717 95 13 718 122 13 719 50 75 720 49 75 721 47 75 722 67 0 723 69 0 724 70 0 725 161 3 726 94 3 727 34 3 728 123 76 729 122 76 730 119 76 731 99 13 732 121 13 733 122 13 734 88 1 735 87 1 736 43 1 737 132 13 738 84 13 739 85 13 740 45 0 741 37 0 742 38 0 743 120 1 744 121 1 745 99 1 746 31 1 747 47 1 748 49 1 749 25 0 750 65 0 751 64 0 752 131 1 753 86 1 754 87 1 755 150 77 756 151 77 757 142 77 758 18 13 759 77 13 760 80 13 761 152 8 762 103 8 763 145 8 764 109 8 765 110 8 766 132 8 767 152 78 768 147 78 769 163 78 770 50 79 771 48 79 772 46 79 773 59 1 774 159 1 775 33 1 776 127 13 777 83 13 778 84 13 779 41 0 780 36 0 781 37 0 782 85 13 783 84 13 784 28 13 785 114 1 786 155 1 787 156 1 788 92 1 789 93 1 790 105 1 791 113 8 792 99 8 793 100 8 794 23 0 795 162 0 796 22 0 797 162 0 798 34 0 799 159 0 800 63 80 801 163 80 802 91 80 803 21 81 804 82 81 805 163 81 806 56 48 807 54 48 808 55 48 809 102 82 810 103 82 811 152 82 812 78 0 813 79 0 814 80 0 815 116 83 816 158 83 817 160 83 818 158 8 819 106 8 820 160 8 821</p>
        </triangles>
      </mesh>
    </geometry>
  </library_geometries>
  <library_visual_scenes>
    <visual_scene id="Scene" name="Scene">
      <node id="auditorium_lowpoly" name="auditorium_lowpoly" type="NODE">
        <matrix sid="transform">0.01 0 0 0 0 -1.62921e-9 -0.01 0 0 0.01 -1.62921e-9 0 0 0 0 1</matrix>
        <instance_geometry url="#auditorium_lowpolyMesh-mesh" name="auditorium_lowpoly">
          <bind_material>
            <technique_common>
              <instance_material symbol="lambert1-material" target="#lambert1-material">
                <bind_vertex_input semantic="auditorium_lowpoly-UV0" input_semantic="TEXCOORD" input_set="0"/>
              </instance_material>
            </technique_common>
          </bind_material>
        </instance_geometry>
      </node>
    </visual_scene>
  </library_visual_scenes>
  <scene>
    <instance_visual_scene url="#Scene"/>
  </scene>
</COLLADA>