<?xml version="1.0" encoding="utf-8"?>
<COLLADA xmlns="http://www.collada.org/2005/11/COLLADASchema" version="1.4.1" xmlns:xsi="http://www.w3.org/2001/XMLSchema-instance">
  <asset>
    <contributor>
      <author>Blender User</author>
      <authoring_tool>Blender 2.93.5 commit date:2021-10-05, commit time:12:04, hash:a791bdabd0b2</authoring_tool>
    </contributor>
    <created>2021-11-09T13:20:03</created>
    <modified>2021-11-09T13:20:03</modified>
    <unit name="meter" meter="1"/>
    <up_axis>Z_UP</up_axis>
  </asset>
  <library_effects>
    <effect id="Opaque-effect">
      <profile_COMMON>
        <technique sid="common">
          <lambert>
            <emission>
              <color sid="emission">0 0 0 1</color>
            </emission>
            <diffuse>
              <color sid="diffuse">0.8 0.8 0.8 1</color>
            </diffuse>
            <reflectivity>
              <float sid="specular">0.5</float>
            </reflectivity>
          </lambert>
        </technique>
      </profile_COMMON>
    </effect>
    <effect id="Transparent-effect">
      <profile_COMMON>
        <technique sid="common">
          <lambert>
            <emission>
              <color sid="emission">0 0 0 1</color>
            </emission>
            <diffuse>
              <color sid="diffuse">0.8 0.8 0.8 1</color>
            </diffuse>
            <reflectivity>
              <float sid="specular">0.5</float>
            </reflectivity>
          </lambert>
        </technique>
      </profile_COMMON>
    </effect>
  </library_effects>
  <library_images/>
  <library_materials>
    <material id="Opaque-material" name="Opaque">
      <instance_effect url="#Opaque-effect"/>
    </material>
    <material id="Transparent-material" name="Transparent">
      <instance_effect url="#Transparent-effect"/>
    </material>
  </library_materials>
  <library_geometries>
    <geometry id="Plane-mesh" name="Plane">
      <mesh>
        <source id="Plane-mesh-positions">
          <float_array id="Plane-mesh-positions-array" count="75">-1 -1 0 1 -1 0 -1 1 0 1 1 0 -1 0.5 0 -1 0 0 -1 -0.5 0 -0.5 -1 0 0 -1 0 0.5 -1 0 1 -0.5 0 1 0 0 1 0.5 0 0.5 1 0 0 1 0 -0.5 1 0 -0.6197052 -0.6197052 0 -0.876343 0 0 -0.6197052 0.6197052 0 0 -0.876343 0 0 0 0 0 0.876343 0 0.6197052 -0.6197052 0 0.876343 0 0 0.6197052 0.6197052 0</float_array>
          <technique_common>
            <accessor source="#Plane-mesh-positions-array" count="25" stride="3">
              <param name="X" type="float"/>
              <param name="Y" type="float"/>
              <param name="Z" type="float"/>
            </accessor>
          </technique_common>
        </source>
        <source id="Plane-mesh-normals">
          <float_array id="Plane-mesh-normals-array" count="3">0 0 1</float_array>
          <technique_common>
            <accessor source="#Plane-mesh-normals-array" count="1" stride="3">
              <param name="X" type="float"/>
              <param name="Y" type="float"/>
              <param name="Z" type="float"/>
            </accessor>
          </technique_common>
        </source>
        <source id="Plane-mesh-map-0">
          <float_array id="Plane-mesh-map-0-array" count="192">0.8097907 0.8097907 0.9999001 0.9999001 0.7499501 0.9999001 0.1902095 0.8097907 1.00248e-4 0.9999001 1.00218e-4 0.7499501 0.5000001 0.9380838 0.2500501 0.9999001 0.1902095 0.8097907 0.5000001 0.9380838 0.7499501 0.9999001 0.5000001 0.9999001 9.998e-5 1.00218e-4 0.1902094 0.1902095 1.00099e-4 0.2500502 1.00099e-4 0.2500502 0.06191629 0.5000001 1.00159e-4 0.5000002 0.06191629 0.5000001 1.00218e-4 0.7499501 1.00159e-4 0.5000002 0.25005 1.00218e-4 0.5 0.06191623 0.1902094 0.1902095 0.1902094 0.1902095 0.5000001 0.5000001 0.06191629 0.5000001 0.5000001 0.5000001 0.1902095 0.8097907 0.06191629 0.5000001 0.7499499 9.998e-5 0.5 0.06191623 0.5 1.00159e-4 0.8097906 0.1902094 0.5000001 0.5000001 0.5 0.06191623 0.5000001 0.5000001 0.8097907 0.8097907 0.5000001 0.9380838 0.9999001 9.998e-5 0.8097906 0.1902094 0.7499499 9.998e-5 0.9999001 0.25005 0.9380839 0.5000001 0.8097906 0.1902094 0.9380839 0.5000001 0.9999001 0.7499501 0.8097907 0.8097907 0.8097907 0.8097907 0.9999001 0.7499501 0.9999001 0.9999001 0.1902095 0.8097907 0.2500501 0.9999001 1.00248e-4 0.9999001 0.5000001 0.9380838 0.5000001 0.9999001 0.2500501 0.9999001 0.5000001 0.9380838 0.8097907 0.8097907 0.7499501 0.9999001 9.998e-5 1.00218e-4 0.25005 1.00218e-4 0.1902094 0.1902095 1.00099e-4 0.2500502 0.1902094 0.1902095 0.06191629 0.5000001 0.06191629 0.5000001 0.1902095 0.8097907 1.00218e-4 0.7499501 0.25005 1.00218e-4 0.5 1.00159e-4 0.5 0.06191623 0.1902094 0.1902095 0.5 0.06191623 0.5000001 0.5000001 0.5000001 0.5000001 0.5000001 0.9380838 0.1902095 0.8097907 0.7499499 9.998e-5 0.8097906 0.1902094 0.5 0.06191623 0.8097906 0.1902094 0.9380839 0.5000001 0.5000001 0.5000001 0.5000001 0.5000001 0.9380839 0.5000001 0.8097907 0.8097907 0.9999001 9.998e-5 0.9999001 0.25005 0.8097906 0.1902094 0.9999001 0.25005 0.9999001 0.5000001 0.9380839 0.5000001 0.9380839 0.5000001 0.9999001 0.5000001 0.9999001 0.7499501</float_array>
          <technique_common>
            <accessor source="#Plane-mesh-map-0-array" count="96" stride="2">
              <param name="S" type="float"/>
              <param name="T" type="float"/>
            </accessor>
          </technique_common>
        </source>
        <vertices id="Plane-mesh-vertices">
          <input semantic="POSITION" source="#Plane-mesh-positions"/>
        </vertices>
        <triangles material="Opaque-material" count="8">
          <input semantic="VERTEX" source="#Plane-mesh-vertices" offset="0"/>
          <input semantic="NORMAL" source="#Plane-mesh-normals" offset="1"/>
          <input semantic="TEXCOORD" source="#Plane-mesh-map-0" offset="2" set="0"/>
          <p>16 0 24 20 0 25 17 0 26 20 0 27 18 0 28 17 0 29 22 0 33 20 0 34 19 0 35 20 0 36 24 0 37 21 0 38 16 0 72 19 0 73 20 0 74 20 0 75 21 0 76 18 0 77 22 0 81 23 0 82 20 0 83 20 0 84 23 0 85 24 0 86</p>
        </triangles>
        <triangles material="Transparent-material" count="24">
          <input semantic="VERTEX" source="#Plane-mesh-vertices" offset="0"/>
          <input semantic="NORMAL" source="#Plane-mesh-normals" offset="1"/>
          <input semantic="TEXCOORD" source="#Plane-mesh-map-0" offset="2" set="0"/>
          <p>24 0 0 3 0 1 13 0 2 18 0 3 2 0 4 4 0 5 21 0 6 15 0 7 18 0 8 21 0 9 13 0 10 14 0 11 0 0 12 16 0 13 6 0 14 6 0 15 17 0 16 5 0 17 17 0 18 4 0 19 5 0 20 7 0 21 19 0 22 16 0 23 9 0 30 19 0 31 8 0 32 1 0 39 22 0 40 9 0 41 10 0 42 23 0 43 22 0 44 23 0 45 12 0 46 24 0 47 24 0 48 12 0 49 3 0 50 18 0 51 15 0 52 2 0 53 21 0 54 14 0 55 15 0 56 21 0 57 24 0 58 13 0 59 0 0 60 7 0 61 16 0 62 6 0 63 16 0 64 17 0 65 17 0 66 18 0 67 4 0 68 7 0 69 8 0 70 19 0 71 9 0 78 22 0 79 19 0 80 1 0 87 10 0 88 22 0 89 10 0 90 11 0 91 23 0 92 23 0 93 11 0 94 12 0 95</p>
        </triangles>
      </mesh>
    </geometry>
  </library_geometries>
  <library_visual_scenes>
    <visual_scene id="Scene" name="Scene">
      <node id="Map" name="Map" type="NODE">
        <matrix sid="transform">1 0 0 0 0 1 0 0 0 0 1 0 0 0 0 1</matrix>
        <instance_geometry url="#Plane-mesh" name="Map">
          <bind_material>
            <technique_common>
              <instance_material symbol="Opaque-material" target="#Opaque-material">
                <bind_vertex_input semantic="UVMap" input_semantic="TEXCOORD" input_set="0"/>
              </instance_material>
              <instance_material symbol="Transparent-material" target="#Transparent-material">
                <bind_vertex_input semantic="UVMap" input_semantic="TEXCOORD" input_set="0"/>
              </instance_material>
            </technique_common>
          </bind_material>
        </instance_geometry>
      </node>
    </visual_scene>
  </library_visual_scenes>
  <scene>
    <instance_visual_scene url="#Scene"/>
  </scene>
</COLLADA>