<?xml version="1.0" encoding="utf-8"?>
<COLLADA xmlns="http://www.collada.org/2005/11/COLLADASchema" version="1.4.1" xmlns:xsi="http://www.w3.org/2001/XMLSchema-instance">
  <asset>
    <contributor>
      <author>Blender User</author>
      <authoring_tool>Blender 2.93.5 commit date:2021-10-05, commit time:12:04, hash:a791bdabd0b2</authoring_tool>
    </contributor>
    <created>2021-11-09T12:21:09</created>
    <modified>2021-11-09T12:21:09</modified>
    <unit name="meter" meter="1"/>
    <up_axis>Z_UP</up_axis>
  </asset>
  <library_effects>
    <effect id="_00Block-effect">
      <profile_COMMON>
        <technique sid="common">
          <lambert>
            <emission>
              <color sid="emission">0 0 0 1</color>
            </emission>
            <diffuse>
              <color sid="diffuse">0.8 0.8 0.8 1</color>
            </diffuse>
            <reflectivity>
              <float sid="specular">0.5</float>
            </reflectivity>
          </lambert>
        </technique>
      </profile_COMMON>
    </effect>
  </library_effects>
  <library_images/>
  <library_materials>
    <material id="_00Block-material" name="800Block">
      <instance_effect url="#_00Block-effect"/>
    </material>
  </library_materials>
  <library_geometries>
    <geometry id="_52Texas-mesh" name="852Texas">
      <mesh>
        <source id="_52Texas-mesh-positions">
          <float_array id="_52Texas-mesh-positions-array" count="207">17.65146 25 -0.04078197 17.65146 25 11.9283 17.65146 -1.19209e-7 11.9283 -0.07897567 25 -0.04078197 0.02836608 0 11.9283 0.4123192 25 11.9283 -0.003543853 -0.005534946 -0.008014917 -0.003543853 -0.005534946 11.82187 17.6256 -0.005534946 -0.008014917 17.6256 -0.005534946 11.82187 -0.003543853 -0.005534946 12.63054 17.6256 -0.005534946 12.63054 4.32131 0.1441518 11.86691 4.32131 0.1441518 18.57909 2.028422 3.061519 11.86691 4.09376 0.4774107 18.54053 16.95066 8.75782 11.86738 16.95066 8.75782 18.57955 14.65777 11.67519 11.86738 16.72311 9.091078 18.54099 4.351272 0.1000847 14.08335 4.35133 0.1001248 18.47773 16.98062 8.713752 14.08381 16.98068 8.713792 18.4782 -0.003543853 -0.005534946 11.82187 17.6256 -0.005534946 11.82187 -0.003543853 -0.005534946 12.63054 17.6256 -0.005534946 12.63054 4.289205 0.1912173 11.86691 4.289205 0.1912173 18.57909 2.028422 3.061519 11.86691 4.09376 0.4774107 18.54053 16.91856 8.804885 11.86738 16.91856 8.804885 18.57955 14.65777 11.67519 11.86738 16.72311 9.091078 18.54099 4.321317 0.1441341 14.12836 10.5725 4.388494 18.57374 10.59098 4.401267 11.8616 16.95067 8.757802 14.12883 4.32131 0.1441518 11.86691 16.95066 8.75782 11.86738 4.321317 0.1441341 14.12836 16.95067 8.757802 14.12883 8.553309 7.502277 11.86189 10.37408 4.739894 18.5353 10.56297 4.450881 11.86162 10.54449 4.438109 18.57376 8.553309 7.502277 11.86189 10.37408 4.739894 18.5353 10.58475 4.396944 14.12304 7.404165 2.268337 11.86974 7.404165 2.268337 18.58192 5.111277 5.185704 11.86974 7.176615 2.601596 18.54336 7.372061 2.315402 11.86974 7.372061 2.315402 18.58192 5.111277 5.185704 11.86974 7.176615 2.601596 18.54336 7.404173 2.268319 14.13119 13.87725 6.711447 18.57565 13.75727 6.609156 11.86532 11.44624 9.512165 11.86239 13.64693 7.042687 18.53614 13.72488 6.65602 11.86518 13.84485 6.758311 18.57552 11.44624 9.512165 11.86239 13.64693 7.042687 18.53614 13.7977 6.643601 14.12615</float_array>
          <technique_common>
            <accessor source="#_52Texas-mesh-positions-array" count="69" stride="3">
              <param name="X" type="float"/>
              <param name="Y" type="float"/>
              <param name="Z" type="float"/>
            </accessor>
          </technique_common>
        </source>
        <source id="_52Texas-mesh-normals">
          <float_array id="_52Texas-mesh-normals-array" count="132">0 1 0 0 0 1 0 -1 0 -0.5051366 0.7406069 0.4431012 0.7862306 0.6179333 2.72761e-6 0.835718 0.5491486 0.003348588 -0.5634595 0.8261438 8.6068e-6 0.5634596 -0.8261436 1.46895e-7 -0.0536288 0.07857728 0.9954646 0.8258067 0.5639533 0 0.5051363 -0.7406069 -0.4431012 -0.8258098 -0.5639488 0 -0.5634598 0.8261436 -4.37319e-6 -0.8705809 -0.4920139 -0.00333321 0.8258056 0.563955 0 -0.7862304 -0.6179336 -2.30634e-6 0.5634594 -0.8261438 -8.4999e-6 -0.7862305 -0.6179333 -2.13734e-6 0.7821569 0.6226393 -0.02347242 -0.8220668 -0.5689114 0.02336949 0 1 0 0 0 1 -0.5051363 0.7406069 0.4431012 0.7883984 0.6151377 -0.005803525 0.8258506 0.5638891 -8.62847e-7 0.8376578 0.5461898 -0.002457916 0.8706215 0.4919424 0.003332257 -0.5634592 0.826144 8.10181e-6 0.5634593 -0.8261438 0 -0.05363047 0.07857698 0.9954645 0.7855756 0.6187558 -0.003528356 0.5051366 -0.7406069 -0.4431012 -0.7855753 -0.6187561 0.003528416 -0.5634595 0.8261438 -4.1166e-6 -0.8351447 -0.5500302 1.82179e-4 0.7855755 0.6187559 -0.003528356 -0.8258488 -0.5638916 8.62862e-7 -0.7883986 -0.6151375 0.005803108 0.5634592 -0.826144 -8.16543e-6 -0.8258489 -0.5638917 8.21378e-7 -0.7883986 -0.6151373 0.005803287 0.7842398 0.6197669 -0.02927404 0.822112 0.568846 -0.02337056 -0.7814341 -0.6234033 0.02700316</float_array>
          <technique_common>
            <accessor source="#_52Texas-mesh-normals-array" count="44" stride="3">
              <param name="X" type="float"/>
              <param name="Y" type="float"/>
              <param name="Z" type="float"/>
            </accessor>
          </technique_common>
        </source>
        <source id="_52Texas-mesh-map-0">
          <float_array id="_52Texas-mesh-map-0-array" count="294">0.9978931 0.9968304 0.8069688 0.8424609 0.9978931 0.8424609 0.8069688 0.8424609 0.9978931 0.6622192 0.9978931 0.8424609 0.008176207 0.4291773 0.7495 0.007270038 0.7495001 0.4291772 0.008176207 0.4291773 0.7495001 0.4626969 0.7495001 0.4291772 0.5403586 0.7296712 0.2444398 0.5066139 0.542585 0.5066139 0.2459993 0.5841619 0.245978 0.5063024 0.1128939 0.5073207 0.2460025 0.5839614 0.2460024 0.5061916 0.11291 0.507207 0.5421659 0.5684276 0.2442483 0.650913 0.5421661 0.650913 0.002262651 0.9952299 0.7080027 0.7686163 0.7080026 0.99523 0.9628572 0.7056944 0.6167355 0.6983664 0.9628615 0.6983664 0.7495001 0.4626969 0.008176207 0.4291773 0.7495001 0.4291772 0.2459888 0.5061914 0.2395666 0.7269305 0.2459888 0.7275335 0.5403586 0.7296712 0.2444398 0.5066139 0.2428386 0.7296972 0.2395672 0.7269582 0.245975 0.5062836 0.245975 0.7276376 0.9628594 0.5330842 0.6167355 0.6983664 0.9628615 0.6983664 0.2395665 0.7269579 0.2459928 0.5062825 0.2459933 0.7276364 0.2459605 0.5063757 0.2395678 0.7269858 0.2459605 0.7277416 0.1129286 0.5070426 0.2460263 0.5060259 0.2460057 0.5836606 0.2442483 0.650913 0.5421659 0.5684276 0.5421661 0.650913 0.1129123 0.507319 0.2460014 0.5063024 0.2460024 0.5841625 0.2460025 0.5839614 0.2460024 0.5061916 0.11291 0.507207 0.2395665 0.7269579 0.2459928 0.5062825 0.2459933 0.7276364 0.9978931 0.9968304 0.8015277 0.9968304 0.8069688 0.8424609 0.8069688 0.8424609 0.8036635 0.6586813 0.9978931 0.6622192 0.008176207 0.4291773 0.008176147 0.007270157 0.7495 0.007270038 0.008176207 0.4291773 0.008176207 0.4626975 0.7495001 0.4626969 0.5403586 0.7296712 0.2428386 0.7296972 0.2444398 0.5066139 0.1128939 0.5073207 0.2395683 0.7269639 0.2459993 0.5841619 0.2395683 0.7269639 0.2459794 0.7276588 0.2459993 0.5841619 0.11291 0.507207 0.2395674 0.7269306 0.2460025 0.5839614 0.2395674 0.7269306 0.2460024 0.7275338 0.2460025 0.5839614 0.5421659 0.5684276 0.2442482 0.5684275 0.2442483 0.650913 0.002262651 0.9952299 0.002262651 0.7686161 0.7080027 0.7686163 0.9628572 0.7056944 0.6167311 0.7056944 0.6167355 0.6983664 0.7495001 0.4626969 0.008176207 0.4626975 0.008176207 0.4291773 0.2459888 0.5061914 0.112923 0.507207 0.2395666 0.7269305 0.5403586 0.7296712 0.542585 0.5066139 0.2444398 0.5066139 0.2395672 0.7269582 0.112917 0.5072991 0.245975 0.5062836 0.9628594 0.5330842 0.6167333 0.5330842 0.6167355 0.6983664 0.2395665 0.7269579 0.1129286 0.5072991 0.2459928 0.5062825 0.2459605 0.5063757 0.1129045 0.5073913 0.2395678 0.7269858 0.2460057 0.5836606 0.2460268 0.7273467 0.2395665 0.726881 0.2395665 0.726881 0.1129286 0.5070426 0.2460057 0.5836606 0.2442483 0.650913 0.2442482 0.5684275 0.5421659 0.5684276 0.2460024 0.5841625 0.246002 0.7276588 0.2395674 0.7269638 0.2395674 0.7269638 0.1129123 0.507319 0.2460024 0.5841625 0.11291 0.507207 0.2395674 0.7269306 0.2460025 0.5839614 0.2395674 0.7269306 0.2460024 0.7275338 0.2460025 0.5839614 0.2395665 0.7269579 0.1129286 0.5072991 0.2459928 0.5062825</float_array>
          <technique_common>
            <accessor source="#_52Texas-mesh-map-0-array" count="147" stride="2">
              <param name="S" type="float"/>
              <param name="T" type="float"/>
            </accessor>
          </technique_common>
        </source>
        <vertices id="_52Texas-mesh-vertices">
          <input semantic="POSITION" source="#_52Texas-mesh-positions"/>
        </vertices>
        <triangles material="_00Block-material" count="49">
          <input semantic="VERTEX" source="#_52Texas-mesh-vertices" offset="0"/>
          <input semantic="NORMAL" source="#_52Texas-mesh-normals" offset="1"/>
          <input semantic="TEXCOORD" source="#_52Texas-mesh-map-0" offset="2" set="0"/>
          <p>0 0 0 5 0 1 1 0 2 5 1 3 2 1 4 1 1 5 7 2 6 8 2 7 9 2 8 7 0 9 11 0 10 9 0 11 15 3 12 18 3 13 14 3 14 39 4 15 16 4 16 18 4 17 50 5 18 38 5 19 44 5 20 16 6 21 36 6 22 39 6 23 21 7 24 22 7 25 23 7 26 19 8 27 13 8 28 17 8 29 27 2 30 24 2 31 25 2 32 28 9 33 31 9 34 29 9 35 31 10 36 34 10 37 35 10 38 35 11 39 32 11 40 33 11 41 39 12 42 13 12 43 17 12 44 49 13 45 46 13 46 47 13 47 55 14 48 58 14 49 56 14 50 53 15 51 51 15 52 59 15 53 42 16 54 41 16 55 43 16 56 14 17 57 12 17 58 36 17 59 68 18 60 61 18 61 62 18 62 67 19 63 64 19 64 65 19 65 0 20 66 3 20 67 5 20 68 5 21 69 4 21 70 2 21 71 7 2 72 6 2 73 8 2 74 7 0 75 10 0 76 11 0 77 15 22 78 19 22 79 18 22 80 18 23 81 19 23 82 39 23 83 19 24 84 17 24 85 39 24 86 44 25 87 45 25 88 50 25 89 45 26 90 37 26 91 50 26 92 16 27 93 12 27 94 36 27 95 21 28 96 20 28 97 22 28 98 19 29 99 15 29 100 13 29 101 27 2 102 26 2 103 24 2 104 28 30 105 30 30 106 31 30 107 31 31 108 30 31 109 34 31 110 35 32 111 34 32 112 32 32 113 39 33 114 36 33 115 13 33 116 49 34 117 48 34 118 46 34 119 55 35 120 57 35 121 58 35 122 59 36 123 52 36 124 54 36 125 54 37 126 53 37 127 59 37 128 42 38 129 40 38 130 41 38 131 36 39 132 13 39 133 15 39 134 15 40 135 14 40 136 36 40 137 62 41 138 63 41 139 68 41 140 63 42 141 60 42 142 68 42 143 67 43 144 66 43 145 64 43 146</p>
        </triangles>
      </mesh>
    </geometry>
  </library_geometries>
  <library_visual_scenes>
    <visual_scene id="Scene" name="Scene">
      <node id="_52Texas_LOD0" name="852Texas_LOD0" type="NODE">
        <matrix sid="transform">1 0 0 60.36105 0 1 0 0 0 0 1 -0.959218 0 0 0 1</matrix>
        <instance_geometry url="#_52Texas-mesh" name="852Texas_LOD0">
          <bind_material>
            <technique_common>
              <instance_material symbol="_00Block-material" target="#_00Block-material">
                <bind_vertex_input semantic="UVMap" input_semantic="TEXCOORD" input_set="0"/>
              </instance_material>
            </technique_common>
          </bind_material>
        </instance_geometry>
      </node>
    </visual_scene>
  </library_visual_scenes>
  <scene>
    <instance_visual_scene url="#Scene"/>
  </scene>
</COLLADA>