<?xml version="1.0" encoding="utf-8"?>
<COLLADA xmlns="http://www.collada.org/2005/11/COLLADASchema" version="1.4.1" xmlns:xsi="http://www.w3.org/2001/XMLSchema-instance">
  <asset>
    <contributor>
      <author>Blender User</author>
      <authoring_tool>Blender 2.93.5 commit date:2021-10-05, commit time:12:04, hash:a791bdabd0b2</authoring_tool>
    </contributor>
    <created>2021-11-09T12:23:16</created>
    <modified>2021-11-09T12:23:16</modified>
    <unit name="meter" meter="1"/>
    <up_axis>Z_UP</up_axis>
  </asset>
  <library_effects>
    <effect id="_00Block-effect">
      <profile_COMMON>
        <technique sid="common">
          <lambert>
            <emission>
              <color sid="emission">0 0 0 1</color>
            </emission>
            <diffuse>
              <color sid="diffuse">0.8 0.8 0.8 1</color>
            </diffuse>
            <reflectivity>
              <float sid="specular">0.5</float>
            </reflectivity>
          </lambert>
        </technique>
      </profile_COMMON>
    </effect>
  </library_effects>
  <library_images/>
  <library_materials>
    <material id="_00Block-material" name="800Block">
      <instance_effect url="#_00Block-effect"/>
    </material>
  </library_materials>
  <library_geometries>
    <geometry id="_00Block_005-mesh" name="800Block.005">
      <mesh>
        <source id="_00Block_005-mesh-positions">
          <float_array id="_00Block_005-mesh-positions-array" count="24">96.10117 25 -1 97.12754 -2.36046e-7 12 97.27162 25 12 97.25292 0 -1 147.0159 25 -1 148.0422 -5.47253e-7 12 147.4221 25 12 148.2233 0 -1</float_array>
          <technique_common>
            <accessor source="#_00Block_005-mesh-positions-array" count="8" stride="3">
              <param name="X" type="float"/>
              <param name="Y" type="float"/>
              <param name="Z" type="float"/>
            </accessor>
          </technique_common>
        </source>
        <source id="_00Block_005-mesh-normals">
          <float_array id="_00Block_005-mesh-normals-array" count="15">0 -1 0 0 0 1 0 1 3.68853e-7 0 -1 0 0 1 -1.87237e-7</float_array>
          <technique_common>
            <accessor source="#_00Block_005-mesh-normals-array" count="5" stride="3">
              <param name="X" type="float"/>
              <param name="Y" type="float"/>
              <param name="Z" type="float"/>
            </accessor>
          </technique_common>
        </source>
        <source id="_00Block_005-mesh-map-0">
          <float_array id="_00Block_005-mesh-map-0-array" count="36">0.2119288 0.001398086 0.7730068 0.1579291 0.2136659 0.1540821 0.2136659 0.1540821 0.7697481 0.3489716 0.2175341 0.3438728 0.2175341 0.3438728 0.7705009 0.496106 0.2046892 0.4909042 0.2119288 0.001398086 0.7731581 1.1619e-4 0.7730068 0.1579291 0.2136659 0.1540821 0.7730068 0.1579291 0.7697481 0.3489716 0.2175341 0.3438728 0.7697481 0.3489716 0.7705009 0.496106</float_array>
          <technique_common>
            <accessor source="#_00Block_005-mesh-map-0-array" count="18" stride="2">
              <param name="S" type="float"/>
              <param name="T" type="float"/>
            </accessor>
          </technique_common>
        </source>
        <vertices id="_00Block_005-mesh-vertices">
          <input semantic="POSITION" source="#_00Block_005-mesh-positions"/>
        </vertices>
        <triangles material="_00Block-material" count="6">
          <input semantic="VERTEX" source="#_00Block_005-mesh-vertices" offset="0"/>
          <input semantic="NORMAL" source="#_00Block_005-mesh-normals" offset="1"/>
          <input semantic="TEXCOORD" source="#_00Block_005-mesh-map-0" offset="2" set="0"/>
          <p>3 0 0 5 0 1 1 0 2 1 1 3 6 1 4 2 1 5 2 2 6 4 2 7 0 2 8 3 3 9 7 3 10 5 3 11 1 1 12 5 1 13 6 1 14 2 4 15 6 4 16 4 4 17</p>
        </triangles>
      </mesh>
    </geometry>
  </library_geometries>
  <library_visual_scenes>
    <visual_scene id="Scene" name="Scene">
      <node id="BallFurniture_LOD0" name="BallFurniture_LOD0" type="NODE">
        <matrix sid="transform">1 0 0 0 0 1 0 0 0 0 1 0 0 0 0 1</matrix>
        <instance_geometry url="#_00Block_005-mesh" name="BallFurniture_LOD0">
          <bind_material>
            <technique_common>
              <instance_material symbol="_00Block-material" target="#_00Block-material">
                <bind_vertex_input semantic="UVMap" input_semantic="TEXCOORD" input_set="0"/>
              </instance_material>
            </technique_common>
          </bind_material>
        </instance_geometry>
      </node>
    </visual_scene>
  </library_visual_scenes>
  <scene>
    <instance_visual_scene url="#Scene"/>
  </scene>
</COLLADA>